    1 [<10>"I k]
    1 [<10>"Tra]
    1 [<10>Clas]
    1 [<10>It i]
    2 [<10>The ]
    1 [ "By ]
    1 [ 1994]
    1 [ 200 ]
    1 [ 200,]
    8 [ Bany]
    1 [ Bogu]
    1 [ Depu]
    1 [ Gove]
    1 [ Hutu]
    1 [ Kivu]
    1 [ Lwab]
    1 [ Lwas]
    1 [ Make]
    1 [ Ngab]
    2 [ Rwan]
    1 [ Tues]
    2 [ Tuts]
    3 [ Zair]
    1 [ a gr]
    1 [ a mi]
    1 [ a te]
    1 [ a we]
    1 [ a wh]
    1 [ abou]
    1 [ adde]
    4 [ agai]
    1 [ ago ]
    1 [ alre]
    1 [ amon]
    1 [ an a]
    2 [ and ]
    2 [ are ]
    3 [ arms]
    3 [ army]
    1 [ as a]
    1 [ aske]
    1 [ away]
    1 [ batt]
    1 [ be i]
    1 [ been]
    1 [ betw]
    1 [ but ]
    2 [ by t]
    1 [ cert]
    1 [ chas]
    1 [ civi]
    1 [ clea]
    1 [ comm]
    2 [ cont]
    1 [ dege]
    1 [ dyna]
    1 [ expi]
    1 [ fled]
    1 [ for ]
    1 [ from]
    1 [ fuel]
    1 [ gave]
    2 [ gove]
    1 [ grav]
    1 [ grou]
    3 [ had ]
    1 [ has ]
    2 [ have]
    1 [ he h]
    1 [ he s]
    1 [ he w]
    1 [ help]
    1 [ iden]
    1 [ if t]
    1 [ in 1]
    1 [ in a]
    1 [ in b]
    1 [ in t]
    2 [ indi]
    2 [ into]
    1 [ is a]
    1 [ is n]
    1 [ know]
    1 [ leav]
    1 [ made]
    1 [ mili]
    1 [ mill]
    1 [ mist]
    1 [ more]
    1 [ no o]
    2 [ not ]
    1 [ of m]
    1 [ of n]
    1 [ of t]
    2 [ offi]
    1 [ on T]
    3 [ oper]
    1 [ or B]
    2 [ othe]
    1 [ pavi]
    2 [ peop]
    1 [ rebe]
    1 [ rece]
    3 [ regi]
    1 [ riva]
    4 [ said]
    1 [ same]
    1 [ sett]
    1 [ sinc]
    1 [ so t]
    1 [ some]
    1 [ spok]
    1 [ susp]
    1 [ take]
    2 [ taki]
    1 [ tele]
    1 [ tend]
    2 [ tens]
    1 [ than]
    1 [ that]
   11 [ the ]
    3 [ them]
    1 [ ther]
    1 [ thos]
    1 [ to b]
    1 [ to c]
    1 [ to h]
    1 [ to l]
    1 [ to r]
    1 [ told]
    3 [ up a]
    1 [ viol]
    1 [ virt]
    1 [ volu]
    1 [ war ]
    1 [ was ]
    1 [ way ]
    1 [ weal]
    1 [ week]
    4 [ who ]
    1 [ whol]
    1 [ will]
    1 [ year]
    1 ["<10>The]
    1 [" gov]
    1 [" he ]
    1 ["By t]
    1 ["I kn]
    1 ["Trad]
    1 [, but]
    1 [, exp]
    1 [, fue]
    2 [, sai]
    2 [, who]
    1 [," go]
    1 [," he]
    1 [,000 ]
    1 [.<10>"I ]
    1 [.<10>"Tr]
    1 [.<10>Cla]
    1 [.<10>It ]
    1 [.<10>The]
    1 [. "By]
    1 [."<10>Th]
    1 [0 Tut]
    1 [0 yea]
    1 [0,000]
    1 [00 Tu]
    1 [00 ye]
    1 [00,00]
    1 [000 T]
    1 [1994.]
    1 [200 y]
    1 [200,0]
    1 [4.<10><10><0>]
    1 [94.<10><10>]
    1 [994.<10>]
    8 [Banya]
    1 [Boguo]
    1 [By ta]
    1 [Clash]
    1 [Deput]
    1 [Gover]
    1 [Hutus]
    1 [I kno]
    1 [It is]
    1 [Kivu ]
    1 [Lwaba]
    1 [Lwasi]
    1 [Makel]
    1 [Ngabo]
    2 [Rwand]
    1 [South]
    2 [The o]
    1 [Tradi]
    1 [Tuesd]
    2 [Tutsi]
    3 [Zaire]
    1 [a Hut]
    1 [a gra]
    1 [a mil]
    1 [a ten]
    1 [a wee]
    1 [a who]
    1 [a.<10>Th]
    1 [abanj]
    1 [abo L]
    1 [about]
    1 [ad be]
    1 [ad ma]
    1 [ad vo]
    1 [added]
    1 [ade a]
    1 [aditi]
    1 [ady t]
    4 [again]
    1 [ago f]
    1 [aid h]
    1 [aid t]
    1 [aid.<10>]
    1 [aid. ]
    1 [ainly]
    4 [ainst]
    3 [airea]
    1 [ake b]
    1 [akeli]
    1 [aken ]
    2 [aking]
    1 [al Rw]
    1 [al ad]
    1 [al ci]
    1 [al, w]
    1 [ally ]
    1 [alrea]
    1 [althy]
    1 [ame r]
    1 [amic ]
    1 [among]
    8 [amule]
    1 [an Bo]
    1 [an a ]
    1 [an al]
    2 [an ar]
    1 [and i]
    1 [and w]
    1 [anda ]
    1 [anda.]
    1 [anji ]
    1 [ans h]
    8 [anyam]
    1 [ar if]
    1 [ar si]
    1 [are d]
    1 [are p]
    2 [arms ]
    1 [arms,]
    2 [army ]
    1 [army,]
    1 [ars a]
    1 [ary o]
    1 [as a ]
    1 [as co]
    1 [as to]
    1 [ase t]
    1 [ashes]
    1 [asi N]
    1 [asked]
    1 [at in]
    1 [ated ]
    3 [ation]
    1 [attli]
    1 [ave d]
    1 [ave m]
    1 [ave s]
    1 [ave t]
    1 [ave, ]
    1 [aving]
    1 [away.]
    1 [ay fo]
    1 [ay, s]
    1 [ay."<10>]
    1 [banji]
    1 [battl]
    1 [be id]
    1 [been ]
    1 [bels.]
    1 [betwe]
    1 [bo Lw]
    1 [bout ]
    1 [but c]
    1 [by ta]
    1 [by te]
    1 [c and]
    1 [ce in]
    1 [ce mo]
    1 [cent ]
    1 [certa]
    1 [chase]
    1 [cial ]
    1 [cial,]
    1 [civil]
    1 [clear]
    1 [commu]
    1 [conti]
    1 [contr]
    1 [cy am]
    1 [d bee]
    1 [d by ]
    1 [d he ]
    1 [d in ]
    1 [d ind]
    1 [d int]
    1 [d mad]
    1 [d not]
    1 [d tha]
    1 [d the]
    1 [d to ]
    1 [d vio]
    1 [d vol]
    1 [d wea]
    1 [d, sa]
    1 [d.<10>"I]
    1 [d.<10>It]
    1 [d. "B]
    1 [da Hu]
    1 [da.<10>T]
    1 [day, ]
    1 [dded ]
    1 [de a ]
    1 [ded t]
    1 [ded.<10>]
    1 [degen]
    1 [dency]
    1 [denti]
    2 [digen]
    1 [ditio]
    1 [dy te]
    1 [dynam]
    1 [e 200]
    4 [e Ban]
    1 [e Tut]
    2 [e Zai]
    1 [e a g]
    1 [e are]
    1 [e arm]
    1 [e as ]
    1 [e by ]
    1 [e deg]
    1 [e dyn]
    1 [e gov]
    2 [e had]
    1 [e he ]
    1 [e ide]
    1 [e int]
    1 [e is ]
    1 [e mis]
    1 [e mor]
    1 [e of ]
    2 [e off]
    1 [e ope]
    1 [e pav]
    1 [e peo]
    1 [e reb]
    3 [e reg]
    1 [e sai]
    1 [e sam]
    1 [e som]
    1 [e tak]
    1 [e tha]
    1 [e the]
    1 [e was]
    1 [e way]
    1 [e, bu]
    1 [e, ex]
    1 [e, wh]
    1 [eady ]
    1 [ealth]
    2 [ean a]
    1 [eans ]
    1 [ear i]
    1 [ears ]
    1 [eave,]
    1 [ebels]
    1 [ecent]
    2 [ed in]
    1 [ed no]
    1 [ed th]
    1 [ed to]
    1 [ed vi]
    1 [ed, s]
    1 [ed.<10>"]
    1 [eek t]
    1 [een B]
    1 [een s]
    1 [eered]
    1 [egene]
    3 [egion]
    1 [ek to]
    1 [eleph]
    1 [eli s]
    1 [ellin]
    1 [elp t]
    1 [els.<10>]
    1 [em aw]
    1 [em wh]
    1 [em," ]
    1 [en Ba]
    1 [en su]
    1 [en up]
    1 [ence ]
    1 [ency ]
    1 [ended]
    1 [enden]
    1 [enera]
    5 [enge ]
    1 [enge,]
    2 [enges]
    2 [enous]
    1 [ense ]
    1 [ensio]
    1 [ent h]
    1 [ent s]
    1 [ent t]
    1 [entif]
    2 [eople]
    1 [ephon]
    1 [eputy]
    1 [er co]
    1 [er gr]
    1 [erate]
    3 [erati]
    1 [ere i]
    1 [ered ]
    2 [ernme]
    1 [ernor]
    1 [ertai]
    1 [es a ]
    1 [es an]
    1 [es be]
    1 [es ha]
    1 [es to]
    1 [esday]
    1 [esman]
    1 [ettle]
    1 [etwee]
    1 [expir]
    1 [f mil]
    1 [f no ]
    2 [f the]
    2 [ffici]
    2 [ficia]
    1 [fied,]
    1 [fled ]
    1 [for o]
    1 [from ]
    1 [fuell]
    1 [g Ban]
    1 [g on ]
    1 [g oth]
    1 [g ten]
    1 [g the]
    2 [g up ]
    1 [gabo ]
    4 [gains]
    1 [gave ]
    1 [ge Tu]
    1 [ge ar]
    1 [ge ha]
    1 [ge pe]
    1 [ge re]
    1 [ge, w]
    1 [gener]
    2 [genou]
    2 [ges a]
    2 [gion ]
    1 [gion.]
    1 [go fr]
    2 [gover]
    1 [grave]
    1 [group]
    1 [guo M]
    1 [h Kiv]
    1 [had b]
    1 [had m]
    1 [had v]
    1 [han a]
    1 [has c]
    1 [hase ]
    1 [hat i]
    2 [have ]
    4 [he Ba]
    2 [he Za]
    1 [he ar]
    1 [he go]
    1 [he ha]
    2 [he of]
    1 [he re]
    2 [he sa]
    2 [he wa]
    1 [help ]
    1 [hem a]
    1 [hem w]
    1 [hem,"]
    1 [her c]
    1 [her g]
    1 [here ]
    1 [hes b]
    1 [ho as]
    1 [ho ga]
    1 [ho ha]
    1 [ho se]
    1 [hole,]
    1 [hone ]
    1 [hose ]
    1 [hy so]
    1 [i Nga]
    1 [i sai]
    1 [i who]
    1 [ial a]
    1 [ial, ]
    1 [ic an]
    2 [icial]
    1 [id he]
    1 [id th]
    1 [id.<10>I]
    1 [id. "]
    1 [ident]
    1 [ied, ]
    1 [ies t]
    1 [if th]
    1 [ified]
    2 [igeno]
    1 [il wa]
    1 [ilita]
    1 [ill c]
    1 [illio]
    1 [in 19]
    1 [in an]
    1 [in ba]
    1 [in th]
    1 [ince ]
    2 [indig]
    1 [ing B]
    1 [ing o]
    2 [ing t]
    2 [ing u]
    1 [inly ]
    4 [inst ]
    2 [into ]
    1 [inue ]
    1 [iolen]
    2 [ion a]
    2 [ion i]
    1 [ion r]
    1 [ion.<10>]
    1 [ional]
    2 [ions ]
    3 [irean]
    1 [iring]
    1 [irtua]
    1 [is a ]
    1 [is ar]
    1 [is no]
    1 [is or]
    1 [istak]
    1 [itary]
    1 [ities]
    1 [ition]
    1 [ival ]
    1 [ivil ]
    1 [ivu D]
    1 [ji wh]
    1 [k to ]
    1 [ke by]
    1 [ked n]
    1 [keli ]
    1 [ken u]
    1 [kesma]
    2 [king ]
    1 [know ]
    1 [l Rwa]
    1 [l add]
    1 [l civ]
    1 [l con]
    1 [l of ]
    1 [l war]
    1 [l, wh]
    1 [lashe]
    1 [ld by]
    1 [le as]
    1 [le, b]
    1 [lear ]
    1 [leave]
    1 [led i]
    1 [led v]
    1 [lence]
    8 [lenge]
    1 [lepho]
    1 [les h]
    1 [li sa]
    2 [ling ]
    1 [lion ]
    1 [litar]
    1 [ll co]
    1 [lling]
    1 [llion]
    1 [lly t]
    1 [lp th]
    1 [lread]
    1 [ls.<10>C]
    1 [lthy ]
    1 [lunte]
    2 [ly th]
    1 [m Rwa]
    1 [m awa]
    1 [m who]
    1 [m," h]
    1 [made ]
    1 [man B]
    1 [me 20]
    1 [me re]
    2 [ment ]
    1 [mic a]
    1 [milit]
    1 [milli]
    1 [mista]
    1 [mmuni]
    1 [mong ]
    1 [more ]
    1 [ms ag]
    1 [ms th]
    1 [ms," ]
    8 [mulen]
    1 [munit]
    1 [my in]
    1 [my wi]
    1 [my, f]
    1 [n 199]
    1 [n Ban]
    1 [n Bog]
    1 [n Tue]
    1 [n a m]
    1 [n abo]
    1 [n aga]
    1 [n alr]
    1 [n an ]
    2 [n arm]
    1 [n bat]
    2 [n in ]
    1 [n riv]
    1 [n sus]
    1 [n the]
    1 [n up ]
    1 [n.<10>"T]
    1 [nally]
    1 [namic]
    1 [nce i]
    1 [nce m]
    1 [ncy a]
    1 [nd in]
    1 [nd we]
    1 [nda H]
    1 [nda.<10>]
    1 [nded.]
    1 [ndenc]
    2 [ndige]
    1 [ne he]
    1 [nerat]
    1 [ng Ba]
    1 [ng on]
    1 [ng ot]
    1 [ng te]
    1 [ng th]
    2 [ng up]
    1 [nge T]
    1 [nge a]
    1 [nge h]
    1 [nge p]
    1 [nge r]
    1 [nge, ]
    2 [nges ]
    1 [nitie]
    1 [nji w]
    1 [nly t]
    2 [nment]
    1 [no op]
    1 [nor L]
    1 [not c]
    1 [not t]
    2 [nous ]
    1 [now o]
    2 [ns ag]
    1 [ns ha]
    1 [nse r]
    1 [nsion]
    1 [nst B]
    3 [nst t]
    1 [nt ha]
    1 [nt sp]
    1 [nt th]
    1 [nteer]
    1 [ntifi]
    1 [ntinu]
    1 [nto t]
    1 [nto v]
    1 [ntrol]
    1 [nue o]
    8 [nyamu]
    1 [o Lwa]
    1 [o Mak]
    1 [o ask]
    1 [o be ]
    1 [o cha]
    1 [o fro]
    1 [o gav]
    1 [o hav]
    1 [o hel]
    1 [o lea]
    1 [o ope]
    1 [o rec]
    1 [o set]
    2 [o the]
    1 [o vir]
    1 [of mi]
    1 [of no]
    1 [of th]
    2 [offic]
    1 [oguo ]
    1 [okesm]
    1 [ol of]
    1 [old b]
    1 [ole, ]
    1 [olenc]
    1 [olunt]
    1 [om Rw]
    1 [ome 2]
    1 [ommun]
    1 [on Tu]
    1 [on ab]
    1 [on ag]
    2 [on in]
    1 [on ri]
    1 [on.<10>"]
    1 [onall]
    1 [one h]
    1 [ong o]
    2 [ons a]
    1 [ontin]
    1 [ontro]
    3 [opera]
    1 [ople ]
    1 [oples]
    1 [or Ba]
    1 [or Lw]
    1 [or ot]
    1 [ore t]
    1 [ose o]
    1 [ot cl]
    1 [ot to]
    2 [other]
    1 [oups ]
    1 [ous Z]
    1 [ous p]
    1 [out 2]
    1 [outh ]
    3 [overn]
    1 [ow of]
    3 [p arm]
    1 [p the]
    1 [pavin]
    1 [pende]
    2 [peopl]
    3 [perat]
    1 [phone]
    1 [pirin]
    1 [ple a]
    1 [ples ]
    1 [pokes]
    1 [ps to]
    1 [puty ]
    1 [r Ban]
    1 [r Lwa]
    1 [r com]
    1 [r gro]
    1 [r if ]
    1 [r oth]
    1 [r sin]
    1 [radit]
    1 [rated]
    3 [ratio]
    1 [rave ]
    1 [re dy]
    1 [re is]
    1 [re pa]
    1 [re th]
    1 [ready]
    2 [rean ]
    1 [reans]
    1 [rebel]
    1 [recen]
    1 [red t]
    3 [regio]
    1 [ring ]
    1 [rival]
    1 [rms a]
    1 [rms t]
    1 [rms,"]
    1 [rmy i]
    1 [rmy w]
    1 [rmy, ]
    2 [rnmen]
    1 [rnor ]
    1 [rol o]
    1 [rom R]
    1 [roups]
    1 [rs ag]
    1 [rtain]
    1 [rtual]
    1 [ry op]
    1 [s Zai]
    1 [s a t]
    2 [s a w]
    3 [s aga]
    1 [s ago]
    1 [s and]
    1 [s are]
    1 [s bet]
    1 [s con]
    1 [s fle]
    1 [s had]
    1 [s hav]
    1 [s not]
    1 [s or ]
    1 [s peo]
    1 [s the]
    2 [s to ]
    1 [s tol]
    1 [s," g]
    1 [s.<10>Cl]
    2 [said ]
    2 [said.]
    1 [same ]
    1 [sday,]
    1 [se of]
    1 [se re]
    1 [se th]
    1 [settl]
    1 [shes ]
    1 [si Ng]
    1 [since]
    1 [sion ]
    1 [sis a]
    1 [sis o]
    1 [sked ]
    1 [sman ]
    1 [so th]
    1 [some ]
    1 [spend]
    1 [spoke]
    1 [st Ba]
    3 [st th]
    1 [stake]
    1 [suspe]
    1 [t 200]
    1 [t Ban]
    1 [t cer]
    1 [t cle]
    1 [t has]
    1 [t ind]
    1 [t is ]
    1 [t spo]
    3 [t the]
    1 [t tho]
    1 [t to ]
    1 [tainl]
    1 [take ]
    1 [taken]
    2 [takin]
    1 [tary ]
    1 [ted i]
    1 [teere]
    1 [telep]
    1 [tende]
    1 [tense]
    1 [tensi]
    1 [th Ki]
    1 [than ]
    1 [that ]
    4 [the B]
    2 [the Z]
    1 [the a]
    1 [the g]
    1 [the r]
    1 [the s]
    1 [the w]
    2 [them ]
    1 [them,]
    2 [ther ]
    1 [there]
    1 [those]
    1 [thy s]
    1 [ties ]
    1 [tifie]
    1 [tinue]
    1 [tion ]
    1 [tiona]
    2 [tions]
    1 [tled ]
    1 [tling]
    1 [to be]
    1 [to ch]
    1 [to he]
    1 [to le]
    1 [to re]
    1 [to th]
    1 [to vi]
    1 [told ]
    1 [trol ]
    2 [tsis ]
    1 [ttled]
    1 [ttlin]
    1 [tual ]
    1 [tus f]
    1 [tween]
    1 [ty Go]
    1 [u Dep]
    1 [ual c]
    1 [ue op]
    1 [uelli]
    1 [uesda]
    8 [uleng]
    1 [uniti]
    1 [untee]
    1 [uo Ma]
    3 [up ar]
    1 [ups t]
    1 [us Za]
    1 [us fl]
    1 [us pe]
    1 [uspen]
    1 [ut 20]
    1 [ut ce]
    1 [uth K]
    2 [utsis]
    1 [utus ]
    1 [uty G]
    1 [val R]
    1 [ve de]
    1 [ve mi]
    1 [ve so]
    1 [ve ta]
    1 [ve, e]
    2 [vernm]
    1 [verno]
    1 [vil w]
    1 [ving ]
    1 [viole]
    1 [virtu]
    1 [volun]
    1 [vu De]
    1 [w of ]
    1 [waban]
    2 [wanda]
    1 [war s]
    1 [was t]
    1 [wasi ]
    1 [way f]
    1 [way."]
    1 [wealt]
    1 [week ]
    1 [ween ]
    1 [who a]
    1 [who g]
    1 [who h]
    1 [who s]
    1 [whole]
    1 [will ]
    1 [xpiri]
    1 [y Gov]
    1 [y amo]
    1 [y for]
    1 [y in ]
    1 [y ope]
    1 [y so ]
    2 [y tak]
    1 [y tel]
    1 [y ten]
    2 [y the]
    1 [y wil]
    1 [y, fu]
    1 [y, sa]
    1 [y."<10>T]
    8 [yamul]
    1 [years]
    1 [ynami]
    1    11 [ the ]
    2     8 [uleng]
    3     8 [nyamu]
    4     8 [ Bany]
    5     8 [anyam]
    6     8 [mulen]
    7     8 [Banya]
    8     8 [lenge]
    9     8 [amule]
   10     8 [yamul]
   11     5 [enge ]
   12     4 [the B]
   13     4 [again]
   14     4 [ said]
   15     4 [ agai]
   16     4 [e Ban]
   17     4 [he Ba]
   18     4 [ainst]
   19     4 [ who ]
   20     4 [inst ]
   21     4 [gains]
   22     3 [ Zair]
   23     3 [st th]
   24     3 [opera]
   25     3 [irean]
   26     3 [ arms]
   27     3 [Zaire]
   28     3 [nst t]
   29     3 [ation]
   30     3 [overn]
   31     3 [erati]
   32     3 [airea]
   33     3 [ them]
   34     3 [s aga]
   35     3 [egion]
   36     3 [p arm]
   37     3 [ratio]
   38     3 [ army]
   39     3 [ oper]
   40     3 [ regi]
   41     3 [perat]
   42     3 [t the]
   43     3 [ had ]
   44     3 [up ar]
   45     3 [regio]
   46     3 [ up a]
   47     3 [e reg]
   48     2 [rean ]
   49     2 [ not ]
   50     2 [he of]
   51     2 [nment]
   52     2 [ are ]
   53     2 [he sa]
   54     2 [he wa]
   55     2 [nous ]
   56     2 [ tens]
   57     2 [ns ag]
   58     2 [utsis]
   59     2 [eople]
   60     2 [rnmen]
   61     2 [ by t]
   62     2 [vernm]
   63     2 [s a w]
   64     2 [ling ]
   65     2 [ernme]
   66     2 [, sai]
   67     2 [wanda]
   68     2 [, who]
   69     2 [aking]
   70     2 [ offi]
   71     2 [ean a]
   72     2 [ gove]
   73     2 [Rwand]
   74     2 [s to ]
   75     2 [ othe]
   76     2 [ly th]
   77     2 [icial]
   78     2 [said ]
   79     2 [digen]
   80     2 [The o]
   81     2 [ indi]
   82     2 [ed in]
   83     2 [o the]
   84     2 [ peop]
   85     2 [f the]
   86     2 [y tak]
   87     2 [ffici]
   88     2 [ficia]
   89     2 [y the]
   90     2 [offic]
   91     2 [ment ]
   92     2 [Tutsi]
   93     2 [igeno]
   94     2 [said.]
   95     2 [ into]
   96     2 [an ar]
   97     2 [ Rwan]
   98     2 [on in]
   99     2 [g up ]
  100     2 [indig]
  101     2 [ing t]
  102     2 [ons a]
  103     2 [ing u]
  104     2 [e Zai]
  105     2 [into ]
  106     2 [takin]
  107     2 [ion a]
  108     2 [n arm]
  109     2 [ion i]
  110     2 [n in ]
  111     2 [other]
  112     2 [the Z]
  113     2 [ions ]
  114     2 [ have]
  115     2 [ cont]
  116     2 [them ]
  117     2 [ther ]
  118     2 [genou]
  119     2 [ges a]
  120     2 [gion ]
  121     2 [peopl]
  122     2 [e had]
  123     2 [gover]
  124     2 [tions]
  125     2 [ Tuts]
  126     2 [arms ]
  127     2 [ndige]
  128     2 [army ]
  129     2 [<10>The ]
  130     2 [ and ]
  131     2 [ taki]
  132     2 [e off]
  133     2 [enges]
  134     2 [tsis ]
  135     2 [ng up]
  136     2 [enous]
  137     2 [have ]
  138     2 [king ]
  139     2 [he Za]
  140     2 [nges ]
  141     1 [200 y]
  142     1 [200,0]
  143     1 [4.<10><10><0>]
  144     1 [94.<10><10>]
  145     1 [994.<10>]
  146     1 [Boguo]
  147     1 [By ta]
  148     1 [Clash]
  149     1 [Deput]
  150     1 [Gover]
  151     1 [Hutus]
  152     1 [I kno]
  153     1 [It is]
  154     1 [Kivu ]
  155     1 [Lwaba]
  156     1 [Lwasi]
  157     1 [Makel]
  158     1 [Ngabo]
  159     1 [South]
  160     1 [Tradi]
  161     1 [Tuesd]
  162     1 [a Hut]
  163     1 [a gra]
  164     1 [a mil]
  165     1 [a ten]
  166     1 [a wee]
  167     1 [a who]
  168     1 [a.<10>Th]
  169     1 [abanj]
  170     1 [abo L]
  171     1 [about]
  172     1 [ad be]
  173     1 [ad ma]
  174     1 [ad vo]
  175     1 [added]
  176     1 [ade a]
  177     1 [aditi]
  178     1 [ady t]
  179     1 [ago f]
  180     1 [aid h]
  181     1 [aid t]
  182     1 [aid.<10>]
  183     1 [aid. ]
  184     1 [ainly]
  185     1 [ake b]
  186     1 [akeli]
  187     1 [aken ]
  188     1 [al Rw]
  189     1 [al ad]
  190     1 [al ci]
  191     1 [al, w]
  192     1 [ally ]
  193     1 [alrea]
  194     1 [althy]
  195     1 [ame r]
  196     1 [amic ]
  197     1 [among]
  198     1 [an Bo]
  199     1 [an a ]
  200     1 [an al]
  201     1 [and i]
  202     1 [and w]
  203     1 [anda ]
  204     1 [anda.]
  205     1 [anji ]
  206     1 [ans h]
  207     1 [ar if]
  208     1 [ar si]
  209     1 [are d]
  210     1 [are p]
  211     1 [arms,]
  212     1 [army,]
  213     1 [ars a]
  214     1 [ary o]
  215     1 [as a ]
  216     1 [as co]
  217     1 [as to]
  218     1 [ase t]
  219     1 [ashes]
  220     1 [asi N]
  221     1 [asked]
  222     1 [at in]
  223     1 [ated ]
  224     1 [attli]
  225     1 [ave d]
  226     1 [ave m]
  227     1 [ave s]
  228     1 [ave t]
  229     1 [ave, ]
  230     1 [aving]
  231     1 [away.]
  232     1 [ay fo]
  233     1 [ay, s]
  234     1 [ay."<10>]
  235     1 [banji]
  236     1 [battl]
  237     1 [be id]
  238     1 [been ]
  239     1 [bels.]
  240     1 [betwe]
  241     1 [bo Lw]
  242     1 [bout ]
  243     1 [but c]
  244     1 [by ta]
  245     1 [by te]
  246     1 [c and]
  247     1 [ce in]
  248     1 [ce mo]
  249     1 [cent ]
  250     1 [certa]
  251     1 [chase]
  252     1 [cial ]
  253     1 [cial,]
  254     1 [civil]
  255     1 [clear]
  256     1 [commu]
  257     1 [conti]
  258     1 [contr]
  259     1 [cy am]
  260     1 [d bee]
  261     1 [d by ]
  262     1 [d he ]
  263     1 [d in ]
  264     1 [d ind]
  265     1 [d int]
  266     1 [d mad]
  267     1 [d not]
  268     1 [d tha]
  269     1 [d the]
  270     1 [d to ]
  271     1 [d vio]
  272     1 [d vol]
  273     1 [d wea]
  274     1 [d, sa]
  275     1 [d.<10>"I]
  276     1 [d.<10>It]
  277     1 [d. "B]
  278     1 [da Hu]
  279     1 [da.<10>T]
  280     1 [day, ]
  281     1 [dded ]
  282     1 [de a ]
  283     1 [ded t]
  284     1 [ded.<10>]
  285     1 [degen]
  286     1 [dency]
  287     1 [denti]
  288     1 [ditio]
  289     1 [dy te]
  290     1 [dynam]
  291     1 [e 200]
  292     1 [e Tut]
  293     1 [e a g]
  294     1 [e are]
  295     1 [e arm]
  296     1 [e as ]
  297     1 [e by ]
  298     1 [e deg]
  299     1 [e dyn]
  300     1 [e gov]
  301     1 [e he ]
  302     1 [e ide]
  303     1 [e int]
  304     1 [e is ]
  305     1 [e mis]
  306     1 [e mor]
  307     1 [e of ]
  308     1 [e ope]
  309     1 [e pav]
  310     1 [e peo]
  311     1 [e reb]
  312     1 [e sai]
  313     1 [e sam]
  314     1 [e som]
  315     1 [e tak]
  316     1 [e tha]
  317     1 [e the]
  318     1 [e was]
  319     1 [e way]
  320     1 [e, bu]
  321     1 [e, ex]
  322     1 [e, wh]
  323     1 [eady ]
  324     1 [ealth]
  325     1 [eans ]
  326     1 [ear i]
  327     1 [ears ]
  328     1 [eave,]
  329     1 [ebels]
  330     1 [ecent]
  331     1 [ed no]
  332     1 [ed th]
  333     1 [ed to]
  334     1 [ed vi]
  335     1 [ed, s]
  336     1 [ed.<10>"]
  337     1 [eek t]
  338     1 [een B]
  339     1 [een s]
  340     1 [eered]
  341     1 [egene]
  342     1 [ek to]
  343     1 [eleph]
  344     1 [eli s]
  345     1 [ellin]
  346     1 [elp t]
  347     1 [els.<10>]
  348     1 [em aw]
  349     1 [em wh]
  350     1 [em," ]
  351     1 [en Ba]
  352     1 [en su]
  353     1 [en up]
  354     1 [ence ]
  355     1 [ency ]
  356     1 [ended]
  357     1 [enden]
  358     1 [enera]
  359     1 [enge,]
  360     1 [ense ]
  361     1 [ensio]
  362     1 [ent h]
  363     1 [ent s]
  364     1 [ent t]
  365     1 [entif]
  366     1 [ephon]
  367     1 [eputy]
  368     1 [er co]
  369     1 [er gr]
  370     1 [erate]
  371     1 [ere i]
  372     1 [ered ]
  373     1 [ernor]
  374     1 [ertai]
  375     1 [es a ]
  376     1 [es an]
  377     1 [es be]
  378     1 [es ha]
  379     1 [es to]
  380     1 [esday]
  381     1 [esman]
  382     1 [ettle]
  383     1 [etwee]
  384     1 [expir]
  385     1 [f mil]
  386     1 [f no ]
  387     1 [fied,]
  388     1 [fled ]
  389     1 [for o]
  390     1 [from ]
  391     1 [fuell]
  392     1 [g Ban]
  393     1 [g on ]
  394     1 [g oth]
  395     1 [g ten]
  396     1 [g the]
  397     1 [gabo ]
  398     1 [gave ]
  399     1 [ge Tu]
  400     1 [ge ar]
  401     1 [ge ha]
  402     1 [ge pe]
  403     1 [ge re]
  404     1 [ge, w]
  405     1 [gener]
  406     1 [gion.]
  407     1 [go fr]
  408     1 [grave]
  409     1 [group]
  410     1 [guo M]
  411     1 [h Kiv]
  412     1 [had b]
  413     1 [had m]
  414     1 [had v]
  415     1 [han a]
  416     1 [has c]
  417     1 [hase ]
  418     1 [hat i]
  419     1 [he ar]
  420     1 [he go]
  421     1 [he ha]
  422     1 [he re]
  423     1 [help ]
  424     1 [hem a]
  425     1 [hem w]
  426     1 [hem,"]
  427     1 [her c]
  428     1 [her g]
  429     1 [here ]
  430     1 [hes b]
  431     1 [ho as]
  432     1 [ho ga]
  433     1 [ho ha]
  434     1 [ho se]
  435     1 [hole,]
  436     1 [hone ]
  437     1 [hose ]
  438     1 [hy so]
  439     1 [i Nga]
  440     1 [i sai]
  441     1 [i who]
  442     1 [ial a]
  443     1 [ial, ]
  444     1 [ic an]
  445     1 [id he]
  446     1 [id th]
  447     1 [id.<10>I]
  448     1 [id. "]
  449     1 [ident]
  450     1 [ied, ]
  451     1 [ies t]
  452     1 [if th]
  453     1 [ified]
  454     1 [il wa]
  455     1 [ilita]
  456     1 [ill c]
  457     1 [illio]
  458     1 [in 19]
  459     1 [in an]
  460     1 [in ba]
  461     1 [in th]
  462     1 [ince ]
  463     1 [ing B]
  464     1 [ing o]
  465     1 [inly ]
  466     1 [inue ]
  467     1 [iolen]
  468     1 [ion r]
  469     1 [ion.<10>]
  470     1 [ional]
  471     1 [iring]
  472     1 [irtua]
  473     1 [is a ]
  474     1 [is ar]
  475     1 [is no]
  476     1 [is or]
  477     1 [istak]
  478     1 [itary]
  479     1 [ities]
  480     1 [ition]
  481     1 [ival ]
  482     1 [ivil ]
  483     1 [ivu D]
  484     1 [ji wh]
  485     1 [k to ]
  486     1 [ke by]
  487     1 [ked n]
  488     1 [keli ]
  489     1 [ken u]
  490     1 [kesma]
  491     1 [know ]
  492     1 [l Rwa]
  493     1 [l add]
  494     1 [l civ]
  495     1 [l con]
  496     1 [l of ]
  497     1 [l war]
  498     1 [l, wh]
  499     1 [lashe]
  500     1 [ld by]
  501     1 [le as]
  502     1 [le, b]
  503     1 [lear ]
  504     1 [leave]
  505     1 [led i]
  506     1 [led v]
  507     1 [lence]
  508     1 [lepho]
  509     1 [les h]
  510     1 [li sa]
  511     1 [lion ]
  512     1 [litar]
  513     1 [ll co]
  514     1 [lling]
  515     1 [llion]
  516     1 [lly t]
  517     1 [lp th]
  518     1 [lread]
  519     1 [ls.<10>C]
  520     1 [lthy ]
  521     1 [lunte]
  522     1 [m Rwa]
  523     1 [m awa]
  524     1 [m who]
  525     1 [m," h]
  526     1 [made ]
  527     1 [man B]
  528     1 [me 20]
  529     1 [me re]
  530     1 [mic a]
  531     1 [milit]
  532     1 [milli]
  533     1 [mista]
  534     1 [mmuni]
  535     1 [mong ]
  536     1 [more ]
  537     1 [ms ag]
  538     1 [ms th]
  539     1 [ms," ]
  540     1 [munit]
  541     1 [my in]
  542     1 [my wi]
  543     1 [my, f]
  544     1 [n 199]
  545     1 [n Ban]
  546     1 [n Bog]
  547     1 [n Tue]
  548     1 [n a m]
  549     1 [n abo]
  550     1 [n aga]
  551     1 [n alr]
  552     1 [n an ]
  553     1 [n bat]
  554     1 [n riv]
  555     1 [n sus]
  556     1 [n the]
  557     1 [n up ]
  558     1 [n.<10>"T]
  559     1 [nally]
  560     1 [namic]
  561     1 [nce i]
  562     1 [nce m]
  563     1 [ncy a]
  564     1 [nd in]
  565     1 [nd we]
  566     1 [nda H]
  567     1 [nda.<10>]
  568     1 [nded.]
  569     1 [ndenc]
  570     1 [ne he]
  571     1 [nerat]
  572     1 [ng Ba]
  573     1 [ng on]
  574     1 [ng ot]
  575     1 [ng te]
  576     1 [ng th]
  577     1 [nge T]
  578     1 [nge a]
  579     1 [nge h]
  580     1 [nge p]
  581     1 [nge r]
  582     1 [nge, ]
  583     1 [nitie]
  584     1 [nji w]
  585     1 [nly t]
  586     1 [no op]
  587     1 [nor L]
  588     1 [not c]
  589     1 [not t]
  590     1 [now o]
  591     1 [ns ha]
  592     1 [nse r]
  593     1 [nsion]
  594     1 [nst B]
  595     1 [nt ha]
  596     1 [nt sp]
  597     1 [nt th]
  598     1 [nteer]
  599     1 [ntifi]
  600     1 [ntinu]
  601     1 [nto t]
  602     1 [nto v]
  603     1 [ntrol]
  604     1 [nue o]
  605     1 [o Lwa]
  606     1 [o Mak]
  607     1 [o ask]
  608     1 [o be ]
  609     1 [o cha]
  610     1 [o fro]
  611     1 [o gav]
  612     1 [o hav]
  613     1 [o hel]
  614     1 [o lea]
  615     1 [o ope]
  616     1 [o rec]
  617     1 [o set]
  618     1 [o vir]
  619     1 [of mi]
  620     1 [of no]
  621     1 [of th]
  622     1 [oguo ]
  623     1 [okesm]
  624     1 [ol of]
  625     1 [old b]
  626     1 [ole, ]
  627     1 [olenc]
  628     1 [olunt]
  629     1 [om Rw]
  630     1 [ome 2]
  631     1 [ommun]
  632     1 [on Tu]
  633     1 [on ab]
  634     1 [on ag]
  635     1 [on ri]
  636     1 [on.<10>"]
  637     1 [onall]
  638     1 [one h]
  639     1 [ong o]
  640     1 [ontin]
  641     1 [ontro]
  642     1 [ople ]
  643     1 [oples]
  644     1 [or Ba]
  645     1 [or Lw]
  646     1 [or ot]
  647     1 [ore t]
  648     1 [ose o]
  649     1 [ot cl]
  650     1 [ot to]
  651     1 [oups ]
  652     1 [ous Z]
  653     1 [ous p]
  654     1 [out 2]
  655     1 [outh ]
  656     1 [ow of]
  657     1 [p the]
  658     1 [pavin]
  659     1 [pende]
  660     1 [phone]
  661     1 [pirin]
  662     1 [ple a]
  663     1 [ples ]
  664     1 [pokes]
  665     1 [ps to]
  666     1 [puty ]
  667     1 [r Ban]
  668     1 [r Lwa]
  669     1 [r com]
  670     1 [r gro]
  671     1 [r if ]
  672     1 [r oth]
  673     1 [r sin]
  674     1 [radit]
  675     1 [rated]
  676     1 [rave ]
  677     1 [re dy]
  678     1 [re is]
  679     1 [re pa]
  680     1 [re th]
  681     1 [ready]
  682     1 [reans]
  683     1 [rebel]
  684     1 [recen]
  685     1 [red t]
  686     1 [ring ]
  687     1 [rival]
  688     1 [rms a]
  689     1 [rms t]
  690     1 [rms,"]
  691     1 [rmy i]
  692     1 [rmy w]
  693     1 [rmy, ]
  694     1 [rnor ]
  695     1 [rol o]
  696     1 [rom R]
  697     1 [roups]
  698     1 [rs ag]
  699     1 [rtain]
  700     1 [rtual]
  701     1 [ry op]
  702     1 [s Zai]
  703     1 [s a t]
  704     1 [s ago]
  705     1 [s and]
  706     1 [s are]
  707     1 [s bet]
  708     1 [s con]
  709     1 [s fle]
  710     1 [s had]
  711     1 [s hav]
  712     1 [s not]
  713     1 [s or ]
  714     1 [s peo]
  715     1 [s the]
  716     1 [s tol]
  717     1 [s," g]
  718     1 [s.<10>Cl]
  719     1 [same ]
  720     1 [sday,]
  721     1 [se of]
  722     1 [se re]
  723     1 [se th]
  724     1 [settl]
  725     1 [shes ]
  726     1 [si Ng]
  727     1 [since]
  728     1 [sion ]
  729     1 [sis a]
  730     1 [sis o]
  731     1 [sked ]
  732     1 [sman ]
  733     1 [so th]
  734     1 [some ]
  735     1 [spend]
  736     1 [spoke]
  737     1 [st Ba]
  738     1 [stake]
  739     1 [suspe]
  740     1 [t 200]
  741     1 [t Ban]
  742     1 [t cer]
  743     1 [t cle]
  744     1 [t has]
  745     1 [t ind]
  746     1 [t is ]
  747     1 [t spo]
  748     1 [t tho]
  749     1 [t to ]
  750     1 [tainl]
  751     1 [take ]
  752     1 [taken]
  753     1 [tary ]
  754     1 [ted i]
  755     1 [teere]
  756     1 [telep]
  757     1 [tende]
  758     1 [tense]
  759     1 [tensi]
  760     1 [th Ki]
  761     1 [than ]
  762     1 [that ]
  763     1 [the a]
  764     1 [the g]
  765     1 [the r]
  766     1 [the s]
  767     1 [the w]
  768     1 [them,]
  769     1 [there]
  770     1 [those]
  771     1 [thy s]
  772     1 [ties ]
  773     1 [tifie]
  774     1 [tinue]
  775     1 [tion ]
  776     1 [tiona]
  777     1 [tled ]
  778     1 [tling]
  779     1 [to be]
  780     1 [to ch]
  781     1 [to he]
  782     1 [to le]
  783     1 [to re]
  784     1 [to th]
  785     1 [to vi]
  786     1 [told ]
  787     1 [trol ]
  788     1 [ttled]
  789     1 [ttlin]
  790     1 [tual ]
  791     1 [tus f]
  792     1 [tween]
  793     1 [ty Go]
  794     1 [u Dep]
  795     1 [ual c]
  796     1 [ue op]
  797     1 [uelli]
  798     1 [uesda]
  799     1 [uniti]
  800     1 [untee]
  801     1 [uo Ma]
  802     1 [ups t]
  803     1 [us Za]
  804     1 [us fl]
  805     1 [us pe]
  806     1 [uspen]
  807     1 [ut 20]
  808     1 [ut ce]
  809     1 [uth K]
  810     1 [utus ]
  811     1 [uty G]
  812     1 [val R]
  813     1 [ve de]
  814     1 [ve mi]
  815     1 [ve so]
  816     1 [ve ta]
  817     1 [ve, e]
  818     1 [verno]
  819     1 [vil w]
  820     1 [ving ]
  821     1 [viole]
  822     1 [virtu]
  823     1 [volun]
  824     1 [vu De]
  825     1 [w of ]
  826     1 [waban]
  827     1 [war s]
  828     1 [was t]
  829     1 [wasi ]
  830     1 [way f]
  831     1 [way."]
  832     1 [wealt]
  833     1 [week ]
  834     1 [ween ]
  835     1 [who a]
  836     1 [who g]
  837     1 [who h]
  838     1 [who s]
  839     1 [whole]
  840     1 [will ]
  841     1 [xpiri]
  842     1 [y Gov]
  843     1 [y amo]
  844     1 [y for]
  845     1 [y in ]
  846     1 [y ope]
  847     1 [y so ]
  848     1 [y tel]
  849     1 [y ten]
  850     1 [y wil]
  851     1 [y, fu]
  852     1 [y, sa]
  853     1 [y."<10>T]
  854     1 [years]
  855     1 [<10>"I k]
  856     1 [ynami]
  857     1 [<10>"Tra]
  858     1 [<10>Clas]
  859     1 [<10>It i]
  860     1 [ "By ]
  861     1 [ 1994]
  862     1 [ 200 ]
  863     1 [ 200,]
  864     1 [ Bogu]
  865     1 [ Depu]
  866     1 [ Gove]
  867     1 [ Hutu]
  868     1 [ Kivu]
  869     1 [ Lwab]
  870     1 [ Lwas]
  871     1 [ Make]
  872     1 [ Ngab]
  873     1 [ Tues]
  874     1 [ a gr]
  875     1 [ a mi]
  876     1 [ a te]
  877     1 [ a we]
  878     1 [ a wh]
  879     1 [ abou]
  880     1 [ adde]
  881     1 [ ago ]
  882     1 [ alre]
  883     1 [ amon]
  884     1 [ an a]
  885     1 [ as a]
  886     1 [ aske]
  887     1 [ away]
  888     1 [ batt]
  889     1 [ be i]
  890     1 [ been]
  891     1 [ betw]
  892     1 [ but ]
  893     1 [ cert]
  894     1 [ chas]
  895     1 [ civi]
  896     1 [ clea]
  897     1 [ comm]
  898     1 [ dege]
  899     1 [ dyna]
  900     1 [ expi]
  901     1 [ fled]
  902     1 [ for ]
  903     1 [ from]
  904     1 [ fuel]
  905     1 [ gave]
  906     1 [ grav]
  907     1 [ grou]
  908     1 [ has ]
  909     1 [ he h]
  910     1 [ he s]
  911     1 [ he w]
  912     1 [ help]
  913     1 [ iden]
  914     1 [ if t]
  915     1 [ in 1]
  916     1 [ in a]
  917     1 [ in b]
  918     1 [ in t]
  919     1 [ is a]
  920     1 [ is n]
  921     1 [ know]
  922     1 [ leav]
  923     1 [ made]
  924     1 [ mili]
  925     1 [ mill]
  926     1 [ mist]
  927     1 [ more]
  928     1 [ no o]
  929     1 [ of m]
  930     1 [ of n]
  931     1 [ of t]
  932     1 [ on T]
  933     1 [ or B]
  934     1 [ pavi]
  935     1 [ rebe]
  936     1 [ rece]
  937     1 [ riva]
  938     1 [ same]
  939     1 [ sett]
  940     1 [ sinc]
  941     1 [ so t]
  942     1 [ some]
  943     1 [ spok]
  944     1 [ susp]
  945     1 [ take]
  946     1 [ tele]
  947     1 [ tend]
  948     1 [ than]
  949     1 [ that]
  950     1 [ ther]
  951     1 [ thos]
  952     1 [ to b]
  953     1 [ to c]
  954     1 [ to h]
  955     1 [ to l]
  956     1 [ to r]
  957     1 [ told]
  958     1 [ viol]
  959     1 [ virt]
  960     1 [ volu]
  961     1 [ war ]
  962     1 [ was ]
  963     1 [ way ]
  964     1 [ weal]
  965     1 [ week]
  966     1 [ whol]
  967     1 [ will]
  968     1 [ year]
  969     1 ["<10>The]
  970     1 [" gov]
  971     1 [" he ]
  972     1 ["By t]
  973     1 ["I kn]
  974     1 ["Trad]
  975     1 [, but]
  976     1 [, exp]
  977     1 [, fue]
  978     1 [," go]
  979     1 [," he]
  980     1 [,000 ]
  981     1 [.<10>"I ]
  982     1 [.<10>"Tr]
  983     1 [.<10>Cla]
  984     1 [.<10>It ]
  985     1 [.<10>The]
  986     1 [. "By]
  987     1 [."<10>Th]
  988     1 [0 Tut]
  989     1 [0 yea]
  990     1 [0,000]
  991     1 [00 Tu]
  992     1 [00 ye]
  993     1 [00,00]
  994     1 [000 T]
  995     1 [1994.]
